Lab 4
…
They are still very large – up to \(10,000,000\). (And that one is most likely a troll, considering their title is listed as “supreme bum.”) Let’s see how many observations have listed salaries of \(750,000\) annually or more:

salarydata %>% 
  filter(salary_in_usd >= 750000)

# A tibble: 37 × 19
   timestamp     age   industry title title_b salary bonuses currency currency_b
   <chr>         <chr> <chr>    <chr> <chr>    <dbl> <chr>   <chr>    <chr>     
 1 4/27/2021 11… 45-54 Health … RN    <NA>    8.32e5 0       USD      <NA>      
 2 4/27/2021 11… 55-64 Art & D… Owne… <NA>    3   e6 <NA>    USD      <NA>      
 3 4/27/2021 12… 25-34 Utiliti… Oper… <NA>    1.02e8 <NA>    USD      COP       
 4 4/27/2021 12… 25-34 Enginee… Soft… <NA>    1.10e6 0       USD      <NA>      
 5 4/27/2021 13… 18-24 Agricul… Agri… I buy … 9.1 e5 250000  GBP      <NA>      
 6 4/27/2021 13… 25-34 Health … Atte… <NA>    1.9 e6 0       USD      <NA>      
 7 4/27/2021 14… 18-24 Nonprof… Admi… <NA>    7.5 e5 <NA>    USD      <NA>      
 8 4/27/2021 14… 25-34 Computi… Prin… <NA>    1.65e6 25000   USD      <NA>      
 9 4/27/2021 17… 35-44 Governm… Seni… <NA>    1.33e6 0       USD      <NA>      
10 4/27/2021 19… 55-64 Health … Medi… <NA>    8   e5 <NA>    USD      <NA>      
# ℹ 27 more rows
# ℹ 10 more variables: salary_b <chr>, country <chr>, us_state <chr>,
#   city <chr>, exp <chr>, spec_exp <chr>, educ <chr>, gender <chr>,
#   race <chr>, salary_in_usd <dbl>

Only 37 rows. And while it’s certainly possible that these are (mostly) legitimate, we can safely feel justified in dropping them. While we’re at it, let’s see how many people reported an annual salary of below \(10,000\):

salarydata %>% 
  arrange(salary_in_usd) %>% 
  filter(salary_in_usd < 10000)

# A tibble: 154 × 19
   timestamp     age   industry title title_b salary bonuses currency currency_b
   <chr>         <chr> <chr>    <chr> <chr>    <dbl> <chr>   <chr>    <chr>     
 1 4/27/2021 16… 35-44 Stay-at… "\"m… <NA>         0 0       USD      <NA>      
 2 4/27/2021 20… 35-44 Nonprof… "Exe… <NA>         0 <NA>    USD      <NA>      
 3 4/28/2021 10… 35-44 Law      "Att… I am a…      0 185000  USD      <NA>      
 4 4/28/2021 13… 25-34 Educati… "Stu… Am tra…      0 0       USD      <NA>      
 5 4/28/2021 16… 18-24 Computi… "Pro… <NA>         0 0       USD      <NA>      
 6 4/28/2021 17… 45-54 Educati… "Hou… <NA>         0 0       USD      <NA>      
 7 4/29/2021 13… 45-54 Computi… "Fou… <NA>         0 0       USD      <NA>      
 8 4/29/2021 14… 35-44 Marketi… "Une… <NA>         0 <NA>    USD      <NA>      
 9 5/1/2021 11:… 25-34 Nonprof… "Gov… <NA>         0 0       USD      <NA>      
10 5/3/2021 20:… 25-34 Busines… "Rea… <NA>         0 200000  USD      <NA>      
# ℹ 144 more rows
# ℹ 10 more variables: salary_b <chr>, country <chr>, us_state <chr>,
#   city <chr>, exp <chr>, spec_exp <chr>, educ <chr>, gender <chr>,
#   race <chr>, salary_in_usd <dbl>
…
