Lab 3
…
data = tibble(source_titles, source_links, source_bias,
              source_agree, source_disagree, source_agree_ratio,
              source_agreement)
data

# A tibble: 50 × 7
   source_titles           source_links source_bias source_agree source_disagree
   <chr>                   <chr>        <chr>              <dbl>           <dbl>
 1 ABC News (Online)       https://www… left-center        46837           23302
 2 AlterNet                https://www… left               17456            4393
 3 Associated Press        https://www… left-center        40154           32767
 4 Associated Press Fact … https://www… left-center         7887            9705
 5 Axios                   https://www… left-center        10071           11247
 6 BBC News                https://www… center             37785           34017
 7 Bloomberg               https://www… left-center        19462           24634
 8 Breitbart News          https://www… right              46557           12916
 9 Business Insider        https://www… left-center         7422            9556
10 BuzzFeed News           https://www… left               30205           10405
# ℹ 40 more rows
# ℹ 2 more variables: source_agree_ratio <dbl>, source_agreement <chr>
…
